{
  "implicitDependencies": {
    "package.json": {
      "dependencies": "*",
      "devDependencies": "*"
    },
    ".eslintrc.json": "*"
  },
  "affected": {
    "defaultBase": "main"
  },
  "npmScope": "waweb",
  "tasksRunnerOptions": {
    "default": {
      "runner": "@nrwl/nx-cloud",
      "options": {
        "cacheableOperations": ["build", "lint", "test", "e2e"],
        "accessToken": "ZjQ3M2ExMzgtYzEyZC00NDEyLWI5OWYtZTY5OGU3MDMxZDUxfHJlYWQtd3JpdGU=",
        "canTrackAnalytics": false,
        "showUsageWarnings": true
      }
    }
  },
  "projects": {
    "pwa": {
      "tags": []
    },
    "pwa-e2e": {
      "tags": [],
      "implicitDependencies": ["pwa"]
    },
    "api": {
      "tags": []
    },
    "api-interfaces": {
      "tags": []
    },
    "demo-portal": {
      "tags": []
    },
    "demo-portal-e2e": {
      "tags": [],
      "implicitDependencies": ["demo-portal"]
    }
  }
}
