{
  "version": 2,
  "cli": {
    "defaultCollection": "@nrwl/react"
  },
  "defaultProject": "pwa",
  "generators": {
    "@nrwl/react": {
      "application": {
        "style": "scss",
        "linter": "eslint",
        "strict": true,
        "babel": true
      },
      "component": {
        "style": "scss"
      },
      "library": {
        "style": "scss",
        "linter": "eslint",
        "strict": true
      }
    }
  },
  "projects": {
    "pwa": {
      "root": "apps/pwa",
      "sourceRoot": "apps/pwa/src",
      "projectType": "application",
      "targets": {
        "build": {
          "executor": "@nrwl/web:build",
          "outputs": ["{options.outputPath}"],
          "options": {
            "outputPath": "dist/apps/pwa",
            "index": "apps/pwa/src/index.html",
            "main": "apps/pwa/src/main.tsx",
            "polyfills": "apps/pwa/src/polyfills.ts",
            "tsConfig": "apps/pwa/tsconfig.app.json",
            "assets": ["apps/pwa/src/favicon.ico", "apps/pwa/src/assets"],
            "styles": ["apps/pwa/src/styles.scss"],
            "scripts": [],
            "webpackConfig": "@nrwl/react/plugins/webpack"
          },
          "configurations": {
            "production": {
              "fileReplacements": [
                {
                  "replace": "apps/pwa/src/environments/environment.ts",
                  "with": "apps/pwa/src/environments/environment.prod.ts"
                }
              ],
              "optimization": true,
              "outputHashing": "all",
              "sourceMap": false,
              "extractCss": true,
              "namedChunks": false,
              "extractLicenses": true,
              "vendorChunk": false,
              "budgets": [
                {
                  "type": "initial",
                  "maximumWarning": "500kb",
                  "maximumError": "1mb"
                }
              ]
            }
          }
        },
        "serve": {
          "executor": "@nrwl/web:dev-server",
          "options": {
            "buildTarget": "pwa:build",
            "hmr": true,
            "proxyConfig": "apps/pwa/proxy.conf.json"
          },
          "configurations": {
            "production": {
              "buildTarget": "pwa:build:production",
              "hmr": false
            }
          }
        },
        "lint": {
          "executor": "@nrwl/linter:eslint",
          "options": {
            "lintFilePatterns": ["apps/pwa/**/*.{ts,tsx,js,jsx}"]
          }
        },
        "test": {
          "executor": "@nrwl/jest:jest",
          "outputs": ["coverage/apps/pwa"],
          "options": {
            "jestConfig": "apps/pwa/jest.config.js",
            "passWithNoTests": true
          }
        }
      }
    },
    "pwa-e2e": {
      "root": "apps/pwa-e2e",
      "sourceRoot": "apps/pwa-e2e/src",
      "projectType": "application",
      "targets": {
        "e2e": {
          "executor": "@nrwl/cypress:cypress",
          "options": {
            "cypressConfig": "apps/pwa-e2e/cypress.json",
            "tsConfig": "apps/pwa-e2e/tsconfig.e2e.json",
            "devServerTarget": "pwa:serve"
          },
          "configurations": {
            "production": {
              "devServerTarget": "pwa:serve:production"
            }
          }
        },
        "lint": {
          "executor": "@nrwl/linter:eslint",
          "options": {
            "lintFilePatterns": ["apps/pwa-e2e/**/*.{js,ts}"]
          }
        }
      }
    },
    "api": {
      "root": "apps/api",
      "sourceRoot": "apps/api/src",
      "projectType": "application",
      "targets": {
        "build": {
          "executor": "@nrwl/node:build",
          "outputs": ["{options.outputPath}"],
          "options": {
            "outputPath": "dist/apps/api",
            "main": "apps/api/src/main.ts",
            "tsConfig": "apps/api/tsconfig.app.json",
            "assets": ["apps/api/src/assets"]
          },
          "configurations": {
            "production": {
              "optimization": true,
              "extractLicenses": true,
              "inspect": false,
              "fileReplacements": [
                {
                  "replace": "apps/api/src/environments/environment.ts",
                  "with": "apps/api/src/environments/environment.prod.ts"
                }
              ]
            }
          }
        },
        "serve": {
          "executor": "@nrwl/node:execute",
          "options": {
            "buildTarget": "api:build"
          }
        },
        "lint": {
          "executor": "@nrwl/linter:eslint",
          "options": {
            "lintFilePatterns": ["apps/api/**/*.ts"]
          }
        },
        "test": {
          "executor": "@nrwl/jest:jest",
          "outputs": ["coverage/apps/api"],
          "options": {
            "jestConfig": "apps/api/jest.config.js",
            "passWithNoTests": true
          }
        }
      }
    },
    "api-interfaces": {
      "root": "libs/api-interfaces",
      "sourceRoot": "libs/api-interfaces/src",
      "projectType": "library",
      "targets": {
        "lint": {
          "executor": "@nrwl/linter:eslint",
          "options": {
            "lintFilePatterns": ["libs/api-interfaces/**/*.ts"]
          }
        }
      }
    },
    "demo-portal": {
      "root": "apps/demo/portal",
      "sourceRoot": "apps/demo/portal/src",
      "projectType": "application",
      "targets": {
        "build": {
          "executor": "@nrwl/web:build",
          "outputs": ["{options.outputPath}"],
          "options": {
            "outputPath": "dist/apps/demo/portal",
            "index": "apps/demo/portal/src/index.html",
            "main": "apps/demo/portal/src/main.tsx",
            "polyfills": "apps/demo/portal/src/polyfills.ts",
            "tsConfig": "apps/demo/portal/tsconfig.app.json",
            "assets": [
              "apps/demo/portal/src/favicon.ico",
              "apps/demo/portal/src/assets"
            ],
            "styles": ["apps/demo/portal/src/styles.scss"],
            "scripts": [],
            "webpackConfig": "@nrwl/react/plugins/webpack"
          },
          "configurations": {
            "production": {
              "fileReplacements": [
                {
                  "replace": "apps/demo/portal/src/environments/environment.ts",
                  "with": "apps/demo/portal/src/environments/environment.prod.ts"
                }
              ],
              "optimization": true,
              "outputHashing": "all",
              "sourceMap": false,
              "extractCss": true,
              "namedChunks": false,
              "extractLicenses": true,
              "vendorChunk": false,
              "budgets": [
                {
                  "type": "initial",
                  "maximumWarning": "500kb",
                  "maximumError": "1mb"
                }
              ]
            }
          }
        },
        "serve": {
          "executor": "@nrwl/web:dev-server",
          "options": {
            "buildTarget": "demo-portal:build",
            "hmr": true
          },
          "configurations": {
            "production": {
              "buildTarget": "demo-portal:build:production",
              "hmr": false
            }
          }
        },
        "lint": {
          "executor": "@nrwl/linter:eslint",
          "options": {
            "lintFilePatterns": ["apps/demo/portal/**/*.{ts,tsx,js,jsx}"]
          }
        },
        "test": {
          "executor": "@nrwl/jest:jest",
          "outputs": ["coverage/apps/demo/portal"],
          "options": {
            "jestConfig": "apps/demo/portal/jest.config.js",
            "passWithNoTests": true
          }
        }
      }
    },
    "demo-portal-e2e": {
      "root": "apps/demo/portal-e2e",
      "sourceRoot": "apps/demo/portal-e2e/src",
      "projectType": "application",
      "targets": {
        "e2e": {
          "executor": "@nrwl/cypress:cypress",
          "options": {
            "cypressConfig": "apps/demo/portal-e2e/cypress.json",
            "tsConfig": "apps/demo/portal-e2e/tsconfig.e2e.json",
            "devServerTarget": "demo-portal:serve"
          },
          "configurations": {
            "production": {
              "devServerTarget": "demo-portal:serve:production"
            }
          }
        },
        "lint": {
          "executor": "@nrwl/linter:eslint",
          "options": {
            "lintFilePatterns": ["apps/demo/portal-e2e/**/*.{js,ts}"]
          }
        }
      }
    }
  }
}
